Chapter 4 Opening the Data | How to Be an Rtist: A Beginner’s Guide to Writing Beautiful, Intentional R Code
…
            How to Be an Rtist: A Beginner’s Guide to Writing Beautiful, Intentional R Code

Chapter 4 Opening the Data

We can open our containers or “nests” in data using the function unnest from the package tidyr.

library(tidyr)
df <- unnest(df, data)
df

>> # A tibble: 24 × 9
>>    source   country date  file_…¹ conti…² year  lifeExp
>>    <chr>    <chr>   <chr> <chr>   <chr>   <chr> <chr>  
>>  1 gapmind… afghan… 2022… csv     Asia    1952  28.801 
>>  2 gapmind… afghan… 2022… csv     Asia    1957  30.332 
>>  3 gapmind… afghan… 2022… csv     Asia    1962  31.997 
>>  4 gapmind… afghan… 2022… csv     Asia    1967  34.02  
>>  5 gapmind… afghan… 2022… csv     Asia    1972  36.088 
>>  6 gapmind… afghan… 2022… csv     Asia    1977  38.438 
>>  7 gapmind… afghan… 2022… csv     Asia    1982  39.854 
>>  8 gapmind… afghan… 2022… csv     Asia    1987  40.822 
>>  9 gapmind… afghan… 2022… csv     Asia    1992  41.674 
>> 10 gapmind… afghan… 2022… csv     Asia    1997  41.763 
>> # … with 14 more rows, 2 more variables: pop <chr>,
>> #   gdpPercap <chr>, and abbreviated variable names
>> #   ¹​file_type, ²​continent
…
str_to_title(df$country)

>>  [1] "Afghanistan" "Afghanistan" "Afghanistan"
>>  [4] "Afghanistan" "Afghanistan" "Afghanistan"
>>  [7] "Afghanistan" "Afghanistan" "Afghanistan"
>> [10] "Afghanistan" "Afghanistan" "Afghanistan"
>> [13] "Canada"      "Canada"      "Canada"     
>> [16] "Canada"      "Canada"      "Canada"     
>> [19] "Canada"      "Canada"      "Canada"     
>> [22] "Canada"      "Canada"      "Canada"

df

>> # A tibble: 24 × 9
>>    source   country date  file_…¹ conti…² year  lifeExp
>>    <chr>    <chr>   <chr> <chr>   <chr>   <chr> <chr>  
>>  1 gapmind… afghan… 2022… csv     Asia    1952  28.801 
>>  2 gapmind… afghan… 2022… csv     Asia    1957  30.332 
>>  3 gapmind… afghan… 2022… csv     Asia    1962  31.997 
>>  4 gapmind… afghan… 2022… csv     Asia    1967  34.02  
>>  5 gapmind… afghan… 2022… csv     Asia    1972  36.088 
>>  6 gapmind… afghan… 2022… csv     Asia    1977  38.438 
>>  7 gapmind… afghan… 2022… csv     Asia    1982  39.854 
>>  8 gapmind… afghan… 2022… csv     Asia    1987  40.822 
>>  9 gapmind… afghan… 2022… csv     Asia    1992  41.674 
>> 10 gapmind… afghan… 2022… csv     Asia    1997  41.763 
>> # … with 14 more rows, 2 more variables: pop <chr>,
>> #   gdpPercap <chr>, and abbreviated variable names
>> #   ¹​file_type, ²​continent
…
